Provider: R for Healthcare Administrative Data Analysis - NPPES
…
NPPES

library(provider)

Individual Providers

atl_ind <- provider::nppes_npi(entype = "I", 
                               state = "GA", 
                               city = "Atlanta")
atl_ind

# A tibble: 889 × 56
   npi      entype enumeration_date years_passed last_updated certification_date
   <chr>    <chr>  <date>                  <dbl> <date>       <date>            
 1 1710538… Indiv… 2019-09-21               3.82 2019-09-21   NA                
 2 1710538… Indiv… 2019-09-21               3.82 2019-09-21   NA                
 3 1346991… Indiv… 2022-01-13               1.51 2022-01-13   2022-01-10        
 4 1346991… Indiv… 2022-01-13               1.51 2022-01-13   2022-01-10        
 5 1750491… Indiv… 2006-08-31              16.9  2007-07-08   NA                
 6 1750491… Indiv… 2006-08-31              16.9  2007-07-08   NA                
 7 1740741… Indiv… 2019-03-29               4.3  2023-03-16   2023-03-16        
 8 1740741… Indiv… 2019-03-29               4.3  2023-03-16   2023-03-16        
 9 1740741… Indiv… 2019-03-29               4.3  2023-03-16   2023-03-16        
10 1740741… Indiv… 2019-03-29               4.3  2023-03-16   2023-03-16        
# ℹ 879 more rows
# ℹ 50 more variables: status <chr>, first_name <chr>, middle_name <chr>,
#   last_name <chr>, credential <chr>, gender <chr>, sole_proprietor <lgl>,
#   purpose <chr>, street <chr>, city <chr>, state <chr>, zipcode <chr>,
#   country <chr>, phone_number <chr>, fax_number <chr>, tx_code <chr>,
#   tx_desc <chr>, tx_group <chr>, tx_state <chr>, tx_license <chr>,
#   tx_primary <lgl>, id_issuer <chr>, id_identifier <chr>, id_state <chr>, …

Certification Date: NPPES allows providers to attest to the accuracy of their NPI data. When a provider requests any change to their NPI record, the certification date is updated. This may also effect the Last Updated column as well.

Organizational Providers

atl_org <- provider::nppes_npi(entype = "O", 
                               state = "GA", 
                               city = "Atlanta")
atl_org

# A tibble: 651 × 52
   npi      entype enumeration_date years_passed last_updated certification_date
   <chr>    <chr>  <date>                  <dbl> <date>       <date>            
 1 1881942… Organ… 2012-08-27              10.9  2012-08-27   NA                
 2 1881942… Organ… 2012-08-27              10.9  2012-08-27   NA                
 3 1881942… Organ… 2012-08-27              10.9  2012-08-27   NA                
 4 1881942… Organ… 2012-08-27              10.9  2012-08-27   NA                
 5 1598140… Organ… 2015-07-23               7.99 2016-12-03   NA                
 6 1598140… Organ… 2015-07-23               7.99 2016-12-03   NA                
 7 1801411… Organ… 2020-06-10               3.1  2020-06-10   2020-06-10        
 8 1801411… Organ… 2020-06-10               3.1  2020-06-10   2020-06-10        
 9 1639793… Organ… 2020-06-05               3.12 2020-06-05   2020-06-05        
10 1639793… Organ… 2020-06-05               3.12 2020-06-05   2020-06-05        
# ℹ 641 more rows
# ℹ 46 more variables: status <chr>, organization_name <chr>,
#   organizational_subpart <lgl>, purpose <chr>, street <chr>, city <chr>,
#   state <chr>, zipcode <chr>, country <chr>, phone_number <chr>,
#   fax_number <chr>, authorized_official_first_name <chr>,
#   authorized_official_middle_name <chr>, authorized_official_last_name <chr>,
#   authorized_official_title_or_position <chr>, …
…
The Health Care Provider Taxonomy code set is an external, nonmedical data code set designed for use in an electronic environment, specifically within the ASC X12N Health Care transactions. This includes the transactions mandated under HIPAA.

The taxonomy code is a unique alphanumeric code, ten characters in length. The code set is structured into 3 distinct “Levels” including Provider Grouping, Classification, and Area of Specialization.

Level I, Provider Grouping A major grouping of service(s) or occupation(s) of health care providers. For example: Allopathic & Osteopathic Physicians, Dental Providers, Hospitals, etc.

Level II, Classification A more specific service or occupation related to the Provider Grouping. For example, the Classification for Allopathic & Osteopathic Physicians is based upon the General Specialty Certificates as issued by the appropriate national boards. The following boards will however, have their general certificates appear as Level III areas of specialization strictly due to display limitations of the code set for Boards that have multiple general certificates: Medical Genetics, Preventive Medicine, Psychiatry & Neurology, Radiology, Surgery, Otolaryngology, Pathology.

Level III, Area of Specialization A more specialized area of the Classification in which a provider chooses to practice or make services available. For example, the Area of Specialization for provider grouping Allopathic & Osteopathic Physicians is based upon the Subspecialty Certificates as issued by the appropriate national boards.

A taxonomy code is a code that describes the health care service provider’s type, classification, and the area of specialization. The primary specialty for this provider is indicated as (Primary) below. The taxonomy codes are selected by the provider at the time of NPI registration. Selection of a taxonomy code does not replace any credentialing or validation process that the provider requesting the code should complete.

nucc_taxonomy_230

# A tibble: 873 × 8
   code     grouping classification specialization definition notes display_name
   <chr>    <chr>    <chr>          <chr>          <chr>      <chr> <chr>       
 1 1932000… Group    Multi-Special… <NA>           A busines… [7/1… Multi-Speci…
 2 1934000… Group    Single Specia… <NA>           A busines… [7/1… Single Spec…
 3 207K000… Allopat… Allergy & Imm… <NA>           An allerg… Sour… Allergy & I…
 4 207KA02… Allopat… Allergy & Imm… Allergy        A physici… Sour… Allergy Phy…
 5 207KI00… Allopat… Allergy & Imm… Clinical & La… An allerg… Sour… Clinical & …
 6 207L000… Allopat… Anesthesiology <NA>           An anesth… Sour… Anesthesiol…
 7 207LA04… Allopat… Anesthesiology Addiction Med… An anesth… Sour… Addiction M…
 8 207LC02… Allopat… Anesthesiology Critical Care… An anesth… Sour… Critical Ca…
 9 207LH00… Allopat… Anesthesiology Hospice and P… An anesth… Sour… Hospice and…
10 207LP29… Allopat… Anesthesiology Pain Medicine  An anesth… Sour… Pain Medici…
# ℹ 863 more rows
# ℹ 1 more variable: section <chr>
…
hospital_enrollment(city = "Atlanta") |> 
  dplyr::pull(npi) |> 
  purrr::map(nppes_npi) |> 
  purrr::list_rbind()

# A tibble: 68 × 36
   npi      entype enumeration_date years_passed last_updated certification_date
   <chr>    <chr>  <date>                  <dbl> <date>       <date>            
 1 1922178… Organ… 2006-11-09               16.7 2023-02-23   2023-02-23        
 2 1922178… Organ… 2006-11-09               16.7 2023-02-23   2023-02-23        
 3 1922178… Organ… 2006-11-09               16.7 2023-02-23   2023-02-23        
 4 1922178… Organ… 2006-11-09               16.7 2023-02-23   2023-02-23        
 5 1922178… Organ… 2006-11-09               16.7 2023-02-23   2023-02-23        
 6 1922178… Organ… 2006-11-09               16.7 2023-02-23   2023-02-23        
 7 1922178… Organ… 2006-11-09               16.7 2023-02-23   2023-02-23        
 8 1922178… Organ… 2006-11-09               16.7 2023-02-23   2023-02-23        
 9 1679664… Organ… 2006-09-27               16.8 2008-03-20   NA                
10 1679664… Organ… 2006-09-27               16.8 2008-03-20   NA                
# ℹ 58 more rows
# ℹ 30 more variables: status <chr>, organization_name <chr>,
#   organizational_subpart <lgl>, purpose <chr>, street <chr>, city <chr>,
#   state <chr>, zipcode <chr>, country <chr>, phone_number <chr>,
#   authorized_official_first_name <chr>, authorized_official_last_name <chr>,
#   authorized_official_title_or_position <chr>,
#   authorized_official_telephone_number <chr>, tx_code <chr>, tx_desc <chr>, …
…
