Provider: R for Healthcare Administrative Data Analysis - 7 Quality Payment Program
…
abbott_measures <- abbott_qpp |> 
  select(year, contains("quality_measure")) |> 
  pivot_longer(!year, names_to = "type", values_to = "val") |> 
  separate_wider_delim(type, "_", names = c("category", "m", "type", "group")) |> 
  mutate(m = NULL) |> 
  pivot_wider(names_from = type, values_from = val, values_fn = list) |> 
  unnest(cols = c(id, score)) |> 
  filter(!is.na(id))

abbott_measures

# A tibble: 22 × 5
    year category group id     score
   <int> <chr>    <chr> <chr>  <chr>
 1  2019 quality  1     ACO321 11.1 
 2  2019 quality  2     001    9.6  
 3  2019 quality  3     318    9.5  
 4  2019 quality  4     112    8.6  
 5  2019 quality  5     113    8.3  
 6  2019 quality  6     236    8.2  
 7  2020 quality  1     226    10   
 8  2020 quality  1     318    9.4  
 9  2020 quality  2     110    9.6  
10  2020 quality  2     001    9.4  
# ℹ 12 more rows
…
# A tibble: 4 × 2
  category     n
  <chr>    <int>
1 cost        10
2 ia         118
3 pi          39
4 quality    813

abbott_measures |> 
  left_join(measures_2019, 
            by = join_by(year, category, id == measureId)) |> 
  janitor::remove_empty(which = c("rows", "cols")) |> 
  mutate(group = NULL)

# A tibble: 22 × 25
    year category id     score title                eMeasureId nqfId description
   <dbl> <chr>    <chr>  <chr> <chr>                <chr>      <chr> <chr>      
 1  2019 quality  ACO321 11.1  CAHPS for ACOs Grou… <NA>       <NA>  Getting ti…
 2  2019 quality  001    9.6   Diabetes: Hemoglobi… CMS122v7   0059  Percentage…
 3  2019 quality  318    9.5   Falls: Screening fo… CMS139v7   0101  Percentage…
 4  2019 quality  112    8.6   Breast Cancer Scree… CMS125v7   2372  Percentage…
 5  2019 quality  113    8.3   Colorectal Cancer S… CMS130v7   0034  Percentage…
 6  2019 quality  236    8.2   Controlling High Bl… CMS165v7   0018  Percentage…
 7  2020 quality  226    10    <NA>                 <NA>       <NA>  <NA>       
 8  2020 quality  318    9.4   <NA>                 <NA>       <NA>  <NA>       
 9  2020 quality  110    9.6   <NA>                 <NA>       <NA>  <NA>       
10  2020 quality  001    9.4   <NA>                 <NA>       <NA>  <NA>       
# ℹ 12 more rows
# ℹ 17 more variables: nationalQualityStrategyDomain <chr>, measureType <chr>,
#   primarySteward <chr>, metricType <chr>, firstPerformanceYear <int>,
#   isHighPriority <lgl>, isInverse <lgl>, isIcdImpacted <lgl>,
#   isClinicalGuidelineChanged <lgl>, isRegistryMeasure <lgl>,
#   isRiskAdjusted <lgl>, measureSets <list>, measureSpecification <list>,
#   strata <list>, cpcPlusGroup <chr>, eligibilityOptions <list>, …
…
                      names_to = "type", 
                      values_to = "val") |> 
  tidyr::separate_wider_delim(type, "_", 
                              names = c("q", "m", "type", "qm_no")) |> 
  tidyr::unite("name", 
               c("q", "m"), 
               remove = TRUE, 
               sep = " ") |> 
  tidyr::pivot_wider(names_from = type, 
                     values_from = val,
                     values_fn = list) |> 
  tidyr::unnest(cols = c(id, score)) |> 
  filter(!is.na(id))

# A tibble: 44 × 5
    year name            qm_no id          score
   <int> <chr>           <chr> <chr>       <chr>
 1  2017 quality measure 1     204         10   
 2  2017 quality measure 2     318         10   
 3  2017 quality measure 3     111         9.5  
 4  2017 quality measure 4     110         9.4  
 5  2017 quality measure 5     DMCOMPOSITE 8.3  
 6  2017 quality measure 6     112         8.2  
 7  2017 quality measure 7     226         8.2  
 8  2017 quality measure 8     113         8.2  
 9  2017 quality measure 9     236         7.8  
10  2017 quality measure 10    134         7.2  
# ℹ 34 more rows
…
